Modeling For Data Science
…
Adding missing grouping variables: `date`, `season`
`summarise()` has grouped output by 'date'. You can override using the
`.groups` argument.

agg_bike_summaries

$general
# A tibble: 353 × 7
# Groups:   date [353]
   date       season mean_rented_bike_count median_rented_bike_count
   <date>     <fct>                   <dbl>                    <dbl>
 1 2017-12-01 Winter                   9539                     9539
 2 2017-12-02 Winter                   8523                     8523
 3 2017-12-03 Winter                   7222                     7222
 4 2017-12-04 Winter                   8729                     8729
 5 2017-12-05 Winter                   8307                     8307
 6 2017-12-06 Winter                   6669                     6669
 7 2017-12-07 Winter                   8549                     8549
 8 2017-12-08 Winter                   8032                     8032
 9 2017-12-09 Winter                   7233                     7233
10 2017-12-10 Winter                   3453                     3453
# ℹ 343 more rows
# ℹ 3 more variables: var_rented_bike_count <dbl>, sd_rented_bike_count <dbl>,
#   IQR_rented_bike_count <dbl>
…
mlr_test_metrics

# A tibble: 2 × 4
  .metric .estimator .estimate .config             
  <chr>   <chr>          <dbl> <chr>               
1 rmse    standard       2629. Preprocessor1_Model1
2 mae     standard       2007. Preprocessor1_Model1

final_model

# A tibble: 29 × 5
   term                     estimate std.error statistic       p.value
   <chr>                       <dbl>     <dbl>     <dbl>         <dbl>
 1 (Intercept)                14157.     2312.     6.12  0.00000000384
 2 total_rainfall_mm_poly_1  -23264.     7799.    -2.98  0.00316      
 3 total_rainfall_mm_poly_2   14515.     3703.     3.92  0.000116     
 4 total_snowfall_cm_poly_1    -846.     3501.    -0.242 0.809        
 5 total_snowfall_cm_poly_2   -2099.     3167.    -0.663 0.508        
 6 avg_temp_c_poly_1         -40134.    79516.    -0.505 0.614        
 7 avg_temp_c_poly_2         -23101.    19064.    -1.21  0.227        
 8 avg_humidity_perc_poly_1  -46149.    27239.    -1.69  0.0915       
 9 avg_humidity_perc_poly_2   -9666.     6515.    -1.48  0.139        
10 avg_windspeed_ms_poly_1    -7441.     3474.    -2.14  0.0332       
# ℹ 19 more rows
…
Going one step further, lets unpack the above output to make it a little cleaner and more readable. To reduce clutter, we’ll show the output for lasso_grid_1.

Again, this seems hard to read as the RMSE seems static across penalties. Note that there are 200 records in this tibble, so we should see some differences on the back-end of our records.

lasso_grid_1 |>
  collect_metrics() |>
  filter(.metric %in% c("rmse"))

# A tibble: 200 × 7
    penalty .metric .estimator  mean     n std_err .config               
      <dbl> <chr>   <chr>      <dbl> <int>   <dbl> <chr>                 
 1 1   e-10 rmse    standard   4066.    10    207. Preprocessor1_Model001
 2 1.12e-10 rmse    standard   4066.    10    207. Preprocessor1_Model002
 3 1.26e-10 rmse    standard   4066.    10    207. Preprocessor1_Model003
 4 1.41e-10 rmse    standard   4066.    10    207. Preprocessor1_Model004
 5 1.59e-10 rmse    standard   4066.    10    207. Preprocessor1_Model005
 6 1.78e-10 rmse    standard   4066.    10    207. Preprocessor1_Model006
 7 2.00e-10 rmse    standard   4066.    10    207. Preprocessor1_Model007
 8 2.25e-10 rmse    standard   4066.    10    207. Preprocessor1_Model008
 9 2.52e-10 rmse    standard   4066.    10    207. Preprocessor1_Model009
10 2.83e-10 rmse    standard   4066.    10    207. Preprocessor1_Model010
# ℹ 190 more rows
…
Final Model

Our MLR model was our winner! The last thing to do is to fit that model on the ENTIRE data set instead of our training and test splits. The final output and metrics are below.

We can see our coefficient estimates fitted against the entire dataset below for our best MLR model. This includes interactions and polynomial terms

bike_wfl_3 |>
  fit(agg_bike_data) |>
  extract_fit_parsnip() |>
  tidy()

# A tibble: 29 × 5
   term                     estimate std.error statistic  p.value
   <chr>                       <dbl>     <dbl>     <dbl>    <dbl>
 1 (Intercept)                16237.     1569.    10.4   6.95e-22
 2 total_rainfall_mm_poly_1  -31817.     6881.    -4.62  5.45e- 6
 3 total_rainfall_mm_poly_2   15915.     3455.     4.61  5.88e- 6
 4 total_snowfall_cm_poly_1   -3263.     3279.    -0.995 3.20e- 1
 5 total_snowfall_cm_poly_2   -1961.     3071.    -0.639 5.24e- 1
 6 avg_temp_c_poly_1          53669.    69530.     0.772 4.41e- 1
 7 avg_temp_c_poly_2         -19838.    17177.    -1.15  2.49e- 1
 8 avg_humidity_perc_poly_1  -23082.    24481.    -0.943 3.46e- 1
 9 avg_humidity_perc_poly_2   -8217.     6120.    -1.34  1.80e- 1
10 avg_windspeed_ms_poly_1    -8602.     3302.    -2.61  9.61e- 3
# ℹ 19 more rows
